%YAML 1.1
%TAG !u! tag:unity3d.com,2011:
--- !u!1045 &1
EditorBuildSettings:
  m_ObjectHideFlags: 0
  serializedVersion: 2
  m_Scenes:
  - enabled: 1
    path: Assets/Scenes/PP1.unity
    guid: 9fc0d4010bbf28b4594072e72b8655ab
  m_configObjects:
    Unity.XR.Oculus.Settings: {fileID: 11400000, guid: a00267dfa40d07f4fab28dac4e5daa11,
      type: 2}
    Unity.XR.WindowsMR.Settings: {fileID: 11400000, guid: 11def9baebf705e40b660f8365908d09,
      type: 2}
    com.unity.input.settings: {fileID: 11400000, guid: ec78855b545e22747a09bffc4caf6a1a,
      type: 2}
    com.unity.xr.management.loader_settings: {fileID: 11400000, guid: 996f604ec06a1384c9f9d1d7bb25ec89,
      type: 2}
